{
  "name": "Google shorter middleware",
  "version": "0.1.0",
  "description": "Simple http sever for middleware you google sorter",
  "title": "Pasha Pas",
  "url": "http://localhost:3000",
  "template": {
    "withCompare": true,
    "withGenerator": true
  }
}